<svg xmlns="http://www.w3.org/2000/svg" width="46.242" height="15.474" viewBox="0 0 46.242 15.474">
  <defs>
    <style>
      .cls-1 {
        fill: #707070;
      }
    </style>
  </defs>
  <path id="ic_trending_flat_24px" class="cls-1" d="M49.242,15.737,39.507,8v5.8H3v3.869H39.507v5.8Z" transform="translate(-3 -8)"/>
</svg>
