<svg xmlns="http://www.w3.org/2000/svg" width="22.675" height="25.829" viewBox="0 0 22.675 25.829">
  <defs>
    <style>
      .cls-1 {
        fill: #707070;
        stroke: #707070;
      }
    </style>
  </defs>
  <g id="Group_690" data-name="Group 690" transform="translate(-1775.049 -116.924)">
    <path id="Path_381" data-name="Path 381" class="cls-1" d="M253.918,953.286a9.423,9.423,0,1,1,9.423-9.423A9.435,9.435,0,0,1,253.918,953.286Zm0-18.171a8.748,8.748,0,1,0,8.749,8.748A8.758,8.758,0,0,0,253.918,935.114Z" transform="translate(1531.054 -817.016)"/>
    <path id="Path_382" data-name="Path 382" class="cls-1" d="M263.492,956.65a.333.333,0,0,1-.256-.118l-6.553-7.7a.337.337,0,0,1,.514-.437l6.552,7.7a.338.338,0,0,1-.038.475A.334.334,0,0,1,263.492,956.65Z" transform="translate(1533.347 -814.396)"/>
  </g>
</svg>
