<svg xmlns="http://www.w3.org/2000/svg" width="23.143" height="30.375" viewBox="0 0 23.143 30.375">
  <defs>
    <style>
      .cls-1 {
        fill: #707070;
      }
    </style>
  </defs>
  <path id="password" class="cls-1" d="M15.571,24.143a2.893,2.893,0,1,0-2.893-2.893A2.9,2.9,0,0,0,15.571,24.143ZM24.25,11.125H22.8V8.232a7.232,7.232,0,0,0-14.464,0h2.748a4.484,4.484,0,0,1,8.968,0v2.893H6.893A2.9,2.9,0,0,0,4,14.018V28.482a2.9,2.9,0,0,0,2.893,2.893H24.25a2.9,2.9,0,0,0,2.893-2.893V14.018A2.9,2.9,0,0,0,24.25,11.125Zm0,17.357H6.893V14.018H24.25Z" transform="translate(-4 -1)"/>
</svg>
