<svg id="file-document" xmlns="http://www.w3.org/2000/svg" width="18" height="20" viewBox="0 0 18 20">
  <defs>
    <style>
      .cls-1, .cls-2 {
        fill: #707070;
      }

      .cls-2 {
        fill-rule: evenodd;
      }
    </style>
  </defs>
  <path id="Path_536" data-name="Path 536" class="cls-1" d="M7,18H17V16H7Z" transform="translate(-3 -2)"/>
  <path id="Path_537" data-name="Path 537" class="cls-1" d="M17,14H7V12H17Z" transform="translate(-3 -2)"/>
  <path id="Path_538" data-name="Path 538" class="cls-1" d="M7,10h4V8H7Z" transform="translate(-3 -2)"/>
  <path id="Path_539" data-name="Path 539" class="cls-2" d="M6,2A3,3,0,0,0,3,5V19a3,3,0,0,0,3,3H18a3,3,0,0,0,3-3V9a7,7,0,0,0-7-7ZM6,4h7V9h6V19a1,1,0,0,1-1,1H6a1,1,0,0,1-1-1V5A1,1,0,0,1,6,4Zm9,.1A5.009,5.009,0,0,1,18.584,7H15Z" transform="translate(-3 -2)"/>
</svg>
