<svg xmlns="http://www.w3.org/2000/svg" width="27.003" height="21.234" viewBox="0 0 27.003 21.234">
  <defs>
    <style>
      .cls-1 {
        fill: #00ce1a;
        stroke: #00ce1a;
        stroke-width: 2px;
      }
    </style>
  </defs>
  <path id="tick_xanh" data-name="tick xanh" class="cls-1" d="M11.092,20.159,5.323,14.391,3.4,16.314l7.692,7.692L27.574,7.523,25.651,5.6Z" transform="translate(-1.986 -4.186)"/>
</svg>
