<svg xmlns="http://www.w3.org/2000/svg" width="39" height="39" viewBox="0 0 39 39">
  <defs>
    <style>
      .cls-1 {
        fill: #0ab2a8;
      }

      .cls-2 {
        fill: #fff;
        stroke: #fff;
        stroke-width: 2px;
      }
    </style>
  </defs>
  <g id="ADD" transform="translate(-12172 -8294)">
    <circle id="Ellipse_17" data-name="Ellipse 17" class="cls-1" cx="19.5" cy="19.5" r="19.5" transform="translate(12172 8294)"/>
    <g id="Group_1278" data-name="Group 1278" transform="translate(10810 8180.95)">
      <path id="Path_377" data-name="Path 377" class="cls-2" d="M48.339,911.982a.432.432,0,0,1-.432-.432v-18.2a.432.432,0,0,1,.865,0v18.2A.432.432,0,0,1,48.339,911.982Z" transform="translate(1333.144 -770.17)"/>
      <path id="Path_378" data-name="Path 378" class="cls-2" d="M60.561,899.758h-18.2a.432.432,0,0,1,0-.863h18.2a.432.432,0,0,1,0,.863Z" transform="translate(1330.021 -767.048)"/>
    </g>
  </g>
</svg>
