<svg xmlns="http://www.w3.org/2000/svg" width="36.095" height="36.095" viewBox="0 0 36.095 36.095">
  <defs>
    <style>
      .cls-1 {
        fill: #707070;
      }
    </style>
  </defs>
  <path id="chart" class="cls-1" d="M35.084,3H7.011A4.022,4.022,0,0,0,3,7.011V35.084a4.022,4.022,0,0,0,4.011,4.011H35.084a4.022,4.022,0,0,0,4.011-4.011V7.011A4.022,4.022,0,0,0,35.084,3ZM15.032,31.074H11.021V17.037h4.011Zm8.021,0H19.042V11.021h4.011Zm8.021,0H27.063V23.053h4.011Z" transform="translate(-3 -3)"/>
</svg>
