<svg xmlns="http://www.w3.org/2000/svg" width="67" height="67" viewBox="0 0 67 67">
  <defs>
    <style>
      .cls-1 {
        fill: #0ab2a8;
      }

      .cls-2 {
        fill: #fff;
      }
    </style>
  </defs>
  <g id="thoát" transform="translate(-0.053)">
    <circle id="Ellipse_17" data-name="Ellipse 17" class="cls-1" cx="33.5" cy="33.5" r="33.5" transform="translate(0.053)"/>
    <path id="ic_close_24px" class="cls-2" d="M31.882,7.707,29.175,5,18.441,15.734,7.707,5,5,7.707,15.734,18.441,5,29.175l2.707,2.707L18.441,21.149,29.175,31.882l2.707-2.707L21.149,18.441Z" transform="translate(15.967 15.805)"/>
  </g>
</svg>
