<svg xmlns="http://www.w3.org/2000/svg" width="23.443" height="23.207" viewBox="0 0 23.443 23.207">
  <defs>
    <style>
      .cls-1 {
        fill: #fff;
        stroke: #fff;
      }
    </style>
  </defs>
  <g id="edit" transform="translate(0.5 0.502)">
    <path id="Path_379" data-name="Path 379" class="cls-1" d="M984.3,1091.045H962.474a.309.309,0,1,1,0-.617H984.3a.309.309,0,1,1,0,.617Z" transform="translate(-962.165 -1068.839)"/>
    <path id="Path_380" data-name="Path 380" class="cls-1" d="M967.733,1090.233a.31.31,0,0,1-.309-.289l-.221-3.566a.31.31,0,0,1,.049-.188l8.709-13.436a.309.309,0,0,1,.427-.092l3.559,2.307a.3.3,0,0,1,.134.195.308.308,0,0,1-.042.232l-8.709,13.436a.31.31,0,0,1-.15.121l-3.339,1.26A.316.316,0,0,1,967.733,1090.233Zm.091-3.792.19,3.047,2.852-1.076,8.487-13.091-3.044-1.972Zm3.246,2.224h0Z" transform="translate(-961.719 -1072.613)"/>
  </g>
</svg>
